<?xml version="1.0" encoding="UTF-8" standalone="no"?>
<!-- Generator: Adobe Illustrator 22.1.0, SVG Export Plug-In . SVG Version: 6.00 Build 0)  -->

<svg
   xmlns:dc="http://purl.org/dc/elements/1.1/"
   xmlns:cc="http://creativecommons.org/ns#"
   xmlns:rdf="http://www.w3.org/1999/02/22-rdf-syntax-ns#"
   xmlns:svg="http://www.w3.org/2000/svg"
   xmlns="http://www.w3.org/2000/svg"
   xmlns:sodipodi="http://sodipodi.sourceforge.net/DTD/sodipodi-0.dtd"
   xmlns:inkscape="http://www.inkscape.org/namespaces/inkscape"
   version="1.1"
   id="Ebene_1"
   x="0px"
   y="0px"
   viewBox="0 0 283.39999 101.4"
   xml:space="preserve"
   sodipodi:docname="logo.svg"
   inkscape:version="0.92.5 (2060ec1f9f, 2020-04-08)"
   width="283.39999"
   height="101.4"><metadata
   id="metadata17"><rdf:RDF><cc:Work
       rdf:about=""><dc:format>image/svg+xml</dc:format><dc:type
         rdf:resource="http://purl.org/dc/dcmitype/StillImage" /><dc:title></dc:title></cc:Work></rdf:RDF></metadata><defs
   id="defs15" /><sodipodi:namedview
   pagecolor="#ffffff"
   bordercolor="#666666"
   borderopacity="1"
   objecttolerance="10"
   gridtolerance="10"
   guidetolerance="10"
   inkscape:pageopacity="0"
   inkscape:pageshadow="2"
   inkscape:window-width="1920"
   inkscape:window-height="1154"
   id="namedview13"
   showgrid="false"
   inkscape:zoom="1.7315403"
   inkscape:cx="162.25739"
   inkscape:cy="60.228491"
   inkscape:window-x="1920"
   inkscape:window-y="0"
   inkscape:window-maximized="1"
   inkscape:current-layer="g10"
   inkscape:snap-page="false" />
<style
   type="text/css"
   id="style2">
	.st0{fill:#96A39A;}
	.st1{fill:#64BC53;}
</style>
<g
   id="g10"
   transform="translate(-0.9,-9.2)">
	<path
   class="st0"
   d="m 211.5,40.1 h 16.3 v 54.1 h -16.3 z m 8.2,-30.9 c 5.2,0 9.4,4.2 9.4,9.4 0,5.2 -4.2,9.4 -9.4,9.4 -5.2,0 -9.4,-4.2 -9.4,-9.4 0,-5.2 4.2,-9.4 9.4,-9.4 z m 64.6,81 c 0,-21.6 -29.2,-18.7 -29.2,-31.7 0,-4.9 5.1,-7.7 9.7,-7.7 5.6,0 10.7,1.8 16,3.9 V 41.4 c -5.4,-1.8 -11.3,-2.7 -16.7,-2.7 -11.7,0 -25.4,6.3 -25.4,20.4 0,22 29.3,20.5 29.3,32.7 0,0.9 -0.2,1.7 -0.4,2.4 H 284 c 0.2,-1.3 0.3,-2.6 0.3,-4 z m -260.2,4 C 19.7,89.4 18,82 18,75.1 18,64 23.2,51.7 35.3,51.7 c 4.2,0 9.1,1.1 12.6,3.1 v -13 C 43.1,40 38.2,38.7 32.9,38.7 13.4,38.7 0.9,54 0.9,75 c 0,6.9 1.2,13.5 3.6,19.1 z m 49.8,0 V 9.4 H 57.6 v 84.8 z m 64.5,0 V 63.3 c 0,-15 -6.9,-24.6 -26,-24.6 -8.7,0 -15.8,2.1 -22.6,5.1 v 12.9 c 5.8,-3.9 14,-6.6 19.9,-6.6 9.8,0 13.1,5.8 13.1,13.8 v 3.5 H 118 c -15.6,0 -34.2,5.8 -34.2,24.3 0,0.9 0,1.7 0.1,2.6 h 16 c -0.4,-1.2 -0.6,-2.5 -0.6,-3.8 0,-11.5 11.1,-13.8 21.1,-13.8 h 2.4 v 17.6 z"
   id="path4"
   inkscape:connector-curvature="0"
   style="fill:#96a39a" />
	<polygon
   class="st1"
   points="174.1,95.4 160.7,40.1 143.2,40.1 163.9,110.6 183.3,110.6 203.9,40.1 187.5,40.1 "
   id="polygon6"
   style="fill:#64bc53" />
	
</g>
</svg>